Cost to business,Do Nothing,Ban fossil fuel production,Cap and trade,Ban fossil fuel consumption,Renewable tax credits,Carbon sequestration,Priority
Do Nothing,1.0,9,7.0,8.0,3.0,2.0,0.3979025193664004
Ban fossil fuel production,0.11111111109999999,1,0.2,0.25,0.11111111109999999,0.5,0.03055310866544413
Cap and trade,0.14285714289999998,5,1.0,6.0,0.25,0.2,0.09334613386731805
Ban fossil fuel consumption,0.125,4,0.1666666667,1.0,0.11111111109999999,0.25,0.04262866925010267
Renewable tax credits,0.3333333333,9,4.0,9.0,1.0,3.0,0.2726327538868552
Carbon sequestration,0.5,2,5.0,4.0,0.3333333333,1.0,0.1629368149638795
