Jobs effect,Do Nothing,Ban fossil fuel production,Cap and trade,Ban fossil fuel consumption,Renewable tax credits,Carbon sequestration
Do Nothing,1,8,2,8,0.5,0.3333333333
Ban fossil fuel production,0.1111111111,1,0.2,0.5,0.125,0.1111111111
Cap and trade,0.5,5,1,3,0.25,0.25
Ban fossil fuel consumption,0.1111111111,2,0.3333333333,1,0.1111111111,0.125
Renewable tax credits,4,8,4,9,1,2
Carbon sequestration,3,9,4,8,0.5,1